326.212 Final Project: Part 2
…
Q8

Measurement_relational_info %>% filter(Item.name == "PM2.5") %>% group_by(Station.name.district.) %>% summarise(mean(Average.value)) %>% arrange(`mean(Average.value)`)

## # A tibble: 25 x 2
##    Station.name.district. `mean(Average.value)`
##    <fct>                                  <dbl>
##  1 Gangbuk-gu                              21.8
##  2 Jongno-gu                               22.6
##  3 Dobong-gu                               22.8
##  4 Jungnang-gu                             22.9
##  5 Jung-gu                                 22.9
##  6 Songpa-gu                               23.0
##  7 Seongbuk-gu                             23.1
##  8 Dongdaemun-gu                           23.5
##  9 Seocho-gu                               23.6
## 10 Yongsan-gu                              23.6
## # ... with 15 more rows
…
